…
### The `arrange` Verb

`arrange()` works similarly to `filter()` except that instead of
filtering or selecting rows, it reorders them.

``` r
# Sort in ascending order of lifeExp
gapminder %>%
  arrange(lifeExp)
```

    ## # A tibble: 1,704 x 6
    ##    country      continent  year lifeExp     pop gdpPercap
    ##    <fct>        <fct>     <int>   <dbl>   <int>     <dbl>
    ##  1 Rwanda       Africa     1992    23.6 7290203      737.
    ##  2 Afghanistan  Asia       1952    28.8 8425333      779.
    ##  3 Gambia       Africa     1952    30    284320      485.
    ##  4 Angola       Africa     1952    30.0 4232095     3521.
    ##  5 Sierra Leone Africa     1952    30.3 2143249      880.
    ##  6 Afghanistan  Asia       1957    30.3 9240934      821.
    ##  7 Cambodia     Asia       1977    31.2 6978607      525.
    ##  8 Mozambique   Africa     1952    31.3 6446316      469.
    ##  9 Sierra Leone Africa     1957    31.6 2295678     1004.
    ## 10 Burkina Faso Africa     1952    32.0 4469979      543.
    ## # … with 1,694 more rows

``` r
# Sort in descending order of lifeExp
gapminder %>% 
  arrange(desc(lifeExp))
```

    ## # A tibble: 1,704 x 6
    ##    country          continent  year lifeExp       pop gdpPercap
    ##    <fct>            <fct>     <int>   <dbl>     <int>     <dbl>
    ##  1 Japan            Asia       2007    82.6 127467972    31656.
    ##  2 Hong Kong, China Asia       2007    82.2   6980412    39725.
    ##  3 Japan            Asia       2002    82   127065841    28605.
    ##  4 Iceland          Europe     2007    81.8    301931    36181.
    ##  5 Switzerland      Europe     2007    81.7   7554661    37506.
    ##  6 Hong Kong, China Asia       2002    81.5   6762476    30209.
    ##  7 Australia        Oceania    2007    81.2  20434176    34435.
    ##  8 Spain            Europe     2007    80.9  40448191    28821.
    ##  9 Sweden           Europe     2007    80.9   9031088    33860.
    ## 10 Israel           Asia       2007    80.7   6426679    25523.
    ## # … with 1,694 more rows

``` r
# Filter for the year 2008, then arrange in descending order of population
gapminder %>%
  filter(year == 2007) %>%
  arrange(desc(pop))
```

    ## # A tibble: 142 x 6
    ##    country       continent  year lifeExp        pop gdpPercap
    ##    <fct>         <fct>     <int>   <dbl>      <int>     <dbl>
    ##  1 China         Asia       2007    73.0 1318683096     4959.
    ##  2 India         Asia       2007    64.7 1110396331     2452.
    ##  3 United States Americas   2007    78.2  301139947    42952.
    ##  4 Indonesia     Asia       2007    70.6  223547000     3541.
    ##  5 Brazil        Americas   2007    72.4  190010647     9066.
    ##  6 Pakistan      Asia       2007    65.5  169270617     2606.
    ##  7 Bangladesh    Asia       2007    64.1  150448339     1391.
    ##  8 Nigeria       Africa     2007    46.9  135031164     2014.
    ##  9 Japan         Asia       2007    82.6  127467972    31656.
    ## 10 Mexico        Americas   2007    76.2  108700891    11978.
    ## # … with 132 more rows

### The `select` Verb

`select()` allows us to rapidly zoom in on a useful subset using
operations that usually only work on numeric variable positions.

``` r
gapminder %>%
  select(country, pop)
```

    ## # A tibble: 1,704 x 2
    ##    country          pop
    ##    <fct>          <int>
    ##  1 Afghanistan  8425333
    ##  2 Afghanistan  9240934
    ##  3 Afghanistan 10267083
    ##  4 Afghanistan 11537966
    ##  5 Afghanistan 13079460
    ##  6 Afghanistan 14880372
    ##  7 Afghanistan 12881816
    ##  8 Afghanistan 13867957
    ##  9 Afghanistan 16317921
    ## 10 Afghanistan 22227415
    ## # … with 1,694 more rows

We can also return a “subset” of columns from a data frame by listing
the name of each column to drop.

``` r
gapminder %>%
  select(-c(continent, pop, gdpPercap))
```

    ## # A tibble: 1,704 x 3
    ##    country      year lifeExp
    ##    <fct>       <int>   <dbl>
    ##  1 Afghanistan  1952    28.8
    ##  2 Afghanistan  1957    30.3
    ##  3 Afghanistan  1962    32.0
    ##  4 Afghanistan  1967    34.0
    ##  5 Afghanistan  1972    36.1
    ##  6 Afghanistan  1977    38.4
    ##  7 Afghanistan  1982    39.9
    ##  8 Afghanistan  1987    40.8
    ##  9 Afghanistan  1992    41.7
    ## 10 Afghanistan  1997    41.8
    ## # … with 1,694 more rows

### The `mutate` Verb

Besides selecting sets of existing columns, it’s often useful to add new
columns/variables that are functions of existing columns.

``` r
# Filter, mutate, and arrange the gapminder dataset
gapminder %>%
  mutate(gdp = gdpPercap * pop) %>% 
  filter(year == 2007) %>%   
  arrange(desc(gdp))
```

    ## # A tibble: 142 x 7
    ##    country        continent  year lifeExp        pop gdpPercap     gdp
    ##    <fct>          <fct>     <int>   <dbl>      <int>     <dbl>   <dbl>
    ##  1 United States  Americas   2007    78.2  301139947    42952. 1.29e13
    ##  2 China          Asia       2007    73.0 1318683096     4959. 6.54e12
    ##  3 Japan          Asia       2007    82.6  127467972    31656. 4.04e12
    ##  4 India          Asia       2007    64.7 1110396331     2452. 2.72e12
    ##  5 Germany        Europe     2007    79.4   82400996    32170. 2.65e12
    ##  6 United Kingdom Europe     2007    79.4   60776238    33203. 2.02e12
    ##  7 France         Europe     2007    80.7   61083916    30470. 1.86e12
    ##  8 Brazil         Americas   2007    72.4  190010647     9066. 1.72e12
    ##  9 Italy          Europe     2007    80.5   58147733    28570. 1.66e12
    ## 10 Mexico         Americas   2007    76.2  108700891    11978. 1.30e12
    ## # … with 132 more rows
…
Both mean and median life expectancy are going up over time.

``` r
# Find mean and median life expectancy in each year/continent combination
gapminder %>%
  group_by(year, continent) %>%
  summarize(meanLifeExp = mean(lifeExp),
            medianLifeExp = median(lifeExp))
```

    ## # A tibble: 60 x 4
    ## # Groups:   year [12]
    ##     year continent meanLifeExp medianLifeExp
    ##    <int> <fct>           <dbl>         <dbl>
    ##  1  1952 Africa           39.1          38.8
    ##  2  1952 Americas         53.3          54.7
    ##  3  1952 Asia             46.3          44.9
    ##  4  1952 Europe           64.4          65.9
    ##  5  1952 Oceania          69.3          69.3
    ##  6  1957 Africa           41.3          40.6
    ##  7  1957 Americas         56.0          56.1
    ##  8  1957 Asia             49.3          48.3
    ##  9  1957 Europe           66.7          67.6
    ## 10  1957 Oceania          70.3          70.3
    ## # … with 50 more rows
…
